Coursework Report
…
min

max

5.72

1.38

2

9

Composite Score

## # A tibble: 125 x 3
##    QUESTION_1 QUESTION_2 QUESTION_3
##         <dbl>      <dbl>      <dbl>
##  1          4          6          5
##  2          4          5          5
##  3          5          8          4
##  4          5          6          5
##  5          5          7          4
##  6          7          7          6
##  7          3          6          8
##  8          6          7          4
##  9          6          5          5
## 10          5          6          6
## # ... with 115 more rows
…
