Coursework Report
…
Main analysis results

t(120) = 6.3, p < .001

NA

Coursework Report

Analysing Data, Spring 2020

## # A tibble: 150 x 6
##    ID    YEARS CONDITION QUESTION_1 QUESTION_2 QUESTION_3
##    <lgl> <lgl> <lgl>     <lgl>      <lgl>      <lgl>     
##  1 FALSE FALSE FALSE     FALSE      FALSE      FALSE     
##  2 FALSE FALSE FALSE     FALSE      FALSE      FALSE     
##  3 FALSE FALSE FALSE     FALSE      FALSE      FALSE     
##  4 FALSE FALSE FALSE     FALSE      FALSE      FALSE     
##  5 FALSE FALSE FALSE     FALSE      FALSE      FALSE     
##  6 FALSE FALSE FALSE     FALSE      FALSE      FALSE     
##  7 FALSE FALSE FALSE     FALSE      FALSE      FALSE     
##  8 FALSE FALSE FALSE     FALSE      FALSE      FALSE     
##  9 FALSE FALSE FALSE     FALSE      FALSE      FALSE     
## 10 FALSE FALSE FALSE     FALSE      FALSE      FALSE     
## # ... with 140 more rows
…
20.83

1.91

experimental

60

48.78

20.75

2.10

## # A tibble: 123 x 5
##    ID    QUESTION_1 QUESTION_2 QUESTION_3 attract_comp
##    <fct>      <dbl>      <dbl>      <dbl>        <dbl>
##  1 CMTZ           7          5          6         5.96
##  2 BEXI           6          6          6         5.96
##  3 RWVN           4          3          6         5.96
##  4 LUEC           7          2          6         5.96
##  5 DTBE           5          6          6         5.96
##  6 BKPG           5          6          4         5.96
##  7 PEEL           4          9          7         5.96
##  8 VRXR           5          5          3         5.96
##  9 VSDT           8          4          3         5.96
## 10 JQDE           7          6          6         5.96
## # ... with 113 more rows

## # A tibble: 123 x 5
##    ID    QUESTION_1 QUESTION_2 QUESTION_3 attract_comp
##    <fct>      <dbl>      <dbl>      <dbl>        <dbl>
##  1 CMTZ           7          5          6         5.96
##  2 BEXI           6          6          6         5.96
##  3 RWVN           4          3          6         5.96
##  4 LUEC           7          2          6         5.96
##  5 DTBE           5          6          6         5.96
##  6 BKPG           5          6          4         5.96
##  7 PEEL           4          9          7         5.96
##  8 VRXR           5          5          3         5.96
##  9 VSDT           8          4          3         5.96
## 10 JQDE           7          6          6         5.96
## # ... with 113 more rows

## # A tibble: 123 x 5
## # Groups:   ID [123]
##    ID    QUESTION_1 QUESTION_2 QUESTION_3 attract_comp
##    <fct>      <dbl>      <dbl>      <dbl>        <dbl>
##  1 CMTZ           7          5          6         6   
##  2 BEXI           6          6          6         6   
##  3 RWVN           4          3          6         4.33
##  4 LUEC           7          2          6         5   
##  5 DTBE           5          6          6         5.67
##  6 BKPG           5          6          4         5   
##  7 PEEL           4          9          7         6.67
##  8 VRXR           5          5          3         4.33
##  9 VSDT           8          4          3         5   
## 10 JQDE           7          6          6         6.33
## # ... with 113 more rows
…
