Tutorial 6: Comparing Two Means
…
Creating a Composite Score

Composite scores can be created in different ways, but were just going to use perhaps the easiest: the mean. What we would like to do is calculate a new variable that is the mean of each persons scores on the three opinion scales (i.e.liking, anth, and perc.int). These three questions are all different aspects of peoples opinions about Pepper and theyre all on the same scale (i.e.0 - 5), so we can take the mean of the three ratings that each person gave and create a new variable, opinion_comp, on the same scale that captures all three ratings together.

Attempt 1: c()

To do this, we might first try the following, using the following familiar code. Here, we put liking, anth, and perc.int into c() because we want all three of them to go in the first argument of mean() together. See the box further down about using c() if youre not sure how this works.

sync %>% 
  mutate(opinion_comp = mean(c(liking, anth, perc.int))) %>% 
# You don't need the line below,
# it's only to make it easier to quickly find the new variable
  select(Px, liking, anth, perc.int, opinion_comp)
# A tibble: 60 x 5
   Px    liking  anth perc.int opinion_comp
   <fct>  <dbl> <dbl>    <dbl>        <dbl>
 1 6        4.8   3.6      4.8           NA
 2 10       4     1.8      2.2           NA
 3 13       4.8   1.2      3             NA
 4 47       3.6   1.6      3.2           NA
 5 68       4     1.8      4.2           NA
 6 1        5     1.8      3             NA
 7 2        3.8   3.8      4.2           NA
 8 5        3.6   3.2      4             NA
 9 7        5     4.4      4.6           NA
10 9        3.8   2.4      4.6           NA
# ... with 50 more rows

This worksor at least, it runs (not the same thing!). If we look at the new variable at the end of our sync tibble, we can see that opinion_comp has been created, but theres nothing in it but NAs! What happened?

Thinking back to our summary, we might remember that there were some NAs in our data. As long as there is at least one NA in at least one of the variables, mean() will return NA. However, we might not have known this unless we checked! R didnt give us an error because as far as R was concerned, it did what we asked it to do without any problems.

Attempt 2: na.rm

Lets try again, this time telling R to ignore any NAs using na.rm = T:

sync %>% 
  mutate(opinion_comp = mean(c(liking, anth, perc.int), na.rm = T)) %>% 
  select(Px, liking, anth, perc.int, opinion_comp)
# A tibble: 60 x 5
   Px    liking  anth perc.int opinion_comp
   <fct>  <dbl> <dbl>    <dbl>        <dbl>
 1 6        4.8   3.6      4.8         3.51
 2 10       4     1.8      2.2         3.51
 3 13       4.8   1.2      3           3.51
 4 47       3.6   1.6      3.2         3.51
 5 68       4     1.8      4.2         3.51
 6 1        5     1.8      3           3.51
 7 2        3.8   3.8      4.2         3.51
 8 5        3.6   3.2      4           3.51
 9 7        5     4.4      4.6         3.51
10 9        3.8   2.4      4.6         3.51
# ... with 50 more rows

At first glance, this seems fine - we have numbers in opinion_comp now. But on closer look, we can see that theyre all the same number, even though we can see from the tibble printout that each row has different values in it. What happened?

This time, R has again quietly done what weve asked. We asked it to calculate the mean of our three variables, and store that value in opinion_comp. What R didnt do (because we didnt tell it to!) is calculate a new mean for each case. Instead, R calculated the overall mean of all of the numbers in all three variables and stored that one value for every case. This is not what we wanted, but again, R doesnt know that; its just done what we asked it to do.

Attempt 3: group_by()

Right, what we really want is that opinion_comp will contain the mean of the three ratings calculated for each person individually. Weve solved a similar problem before using group_by(). Lets try grouping by Px, our participant code, which weve used previously in descriptive tables for a similar purpose.

sync %>% 
  group_by(Px) %>% 
  mutate(opinion_comp = mean(c(liking, anth, perc.int), na.rm = T)) %>% 
  select(Px, liking, anth, perc.int, opinion_comp)
# A tibble: 60 x 5
# Groups:   Px [60]
   Px    liking  anth perc.int opinion_comp
   <fct>  <dbl> <dbl>    <dbl>        <dbl>
 1 6        4.8   3.6      4.8         4.4 
 2 10       4     1.8      2.2         2.67
 3 13       4.8   1.2      3           3   
 4 47       3.6   1.6      3.2         2.8 
 5 68       4     1.8      4.2         3.33
 6 1        5     1.8      3           3.27
 7 2        3.8   3.8      4.2         3.93
 8 5        3.6   3.2      4           3.6 
 9 7        5     4.4      4.6         4.67
10 9        3.8   2.4      4.6         3.6 
# ... with 50 more rows
…
nars_comp, which is the mean rating across all three NARS scales

Refer to the codebook to figure out how many questions you need to divide by!

Solution

sync <- sync %>% 
  group_by(Px) %>% 
  mutate(nars_total = sum(nars1, nars2, nars3),
         nars_comp = nars_total/14) %>% 
  ungroup()

# Call the dataset to see the new variables
sync
# A tibble: 60 x 13
   Px      Age Gender condition liking  anth perc.int nars1 nars2 nars3 opinion_comp
   <fct> <dbl> <fct>  <fct>      <dbl> <dbl>    <dbl> <dbl> <dbl> <dbl>        <dbl>
 1 6        22 Female Synchrony    4.8   3.6      4.8    10    13     6         4.4 
 2 10       17 Male   Asynchro~    4     1.8      2.2     8    12    10         2.67
 3 13       23 Male   Asynchro~    4.8   1.2      3      10    16    11         3   
 4 47       18 Female Asynchro~    3.6   1.6      3.2    16    15    10         2.8 
 5 68       19 Female Synchrony    4     1.8      4.2    15    21    10         3.33
 6 1        21 Female Asynchro~    5     1.8      3      14    21     7         3.27
 7 2        21 Female Synchrony    3.8   3.8      4.2    13    14     7         3.93
 8 5        21 Female Synchrony    3.6   3.2      4      17    16     9         3.6 
 9 7        21 Female Asynchro~    5     4.4      4.6    11    14     6         4.67
10 9        21 Female Synchrony    3.8   2.4      4.6    16    19     9         3.6 
# ... with 50 more rows, and 2 more variables: nars_total <dbl>, nars_comp <dbl>
…
