Tutorial 4: Visualising data with ggplot()
…
Before we can draw this plot, we first need to do a little bit of data wrangling. If you’ve had a look at the movies_data dataset (as you should always do!), you will have noticed that there are several indicator variables for genre rather than a single genre column. This is useful in a situation where one movie can fall into several genre categories but it’s not great for plotting. What we need is a single column where it would say what genre a given movie is. If a movie fits into several categories, we can just have multiple rows for that particular movie.

How to do this is a topic for next term so for now, just take the following code and use it to create the plot. There is only one line that should be completely new to you. The rest should make sense. In particular, notice how we used filter() and the %in% operator to only choose movies with an MPAA ratings of “PG”, “PG-13”, or “R”. The %in% operator is extremely useful so you will see and use it quite often.

movie_data %>%
  filter(mpaa %in% c("PG", "PG-13", "R")) %>%
  select(title, rating, mpaa, Action:Short) %>%
  pivot_longer(cols = Action:Short, names_to = "genre", values_to = "is_genre") %>%
  filter(is_genre == 1)

## # A tibble: 2,347 x 5
##    title          rating mpaa  genre   is_genre
##    <chr>           <dbl> <chr> <chr>      <int>
##  1 $windle           5.3 R     Action         1
##  2 $windle           5.3 R     Drama          1
##  3 'R Xmas           4.9 R     Drama          1
##  4 100 Mile Rule     5.6 R     Comedy         1
##  5 13 Dead Men       2.2 R     Action         1
##  6 13 Going On 30    6.4 PG-13 Comedy         1
##  7 13 Going On 30    6.4 PG-13 Drama          1
##  8 13 Going On 30    6.4 PG-13 Romance        1
##  9 13 Moons          5.6 R     Comedy         1
## 10 15 Minutes        6.1 R     Drama          1
## # ... with 2,337 more rows
…
